[
  {
    "item_id": "28",
    "loc_data": "{1,2807,3450,0,7864410}"
  },
  {
    "item_id": "33",
    "loc_data": "{1,2547,3114,0,983050}-{1,3208,3395,1,3932190}"
  },
  {
    "item_id": "39",
    "loc_data": "{1,2672,3433,0,7209050}"
  },
  {
    "item_id": "41",
    "loc_data": "{1,3125,9997,0,7209050}"
  },
  {
    "item_id": "53",
    "loc_data": "{3,3240,3940,0,300}-{2,3237,3948,0,300}-{3,3235,3949,0,300}"
  },
  {
    "item_id": "88",
    "loc_data": "{1,2654,9767,0,4587583}"
  },
  {
    "item_id": "90",
    "loc_data": "{1,2570,9604,0,5898270}"
  },
  {
    "item_id": "185",
    "loc_data": "{1,2467,3176,0,7209050}"
  },
  {
    "item_id": "223",
    "loc_data": "{1,3128,9956,0,7864410}-{1,3129,9954,0,7864410}-{1,3126,9958,0,7864410}-{1,3117,9951,0,7864410}-{1,3118,9948,0,7864410}-{1,3119,9949,0,7864410}-{1,3179,9881,0,7864410}-{1,3177,9880,0,7864410}"
  },
  {
    "item_id": "229",
    "loc_data": "{1,2809,3342,0,7864420}-{1,2808,3343,0,7864420}-{1,2588,3090,2,7209050}-{1,2587,3090,2,7209050}-{1,3195,3849,0,6553660}-{1,3186,3836,0,6553660}"
  },
  {
    "item_id": "231",
    "loc_data": "{1,2905,3297,0,1310730}-{1,2907,3295,0,1310730}-{1,2553,3751,0,7864410}-{1,2553,3754,0,7864410}-{1,2552,3757,0,7864410}-{1,2546,3763,0,7864410}-{1,2542,3765,0,7864410}-{1,2540,3765,0,7864410}-{1,2528,3716,0,7864410}-{1,2501,3727,0,7864410}-{1,2502,3726,0,7864410}-{1,2501,3729,0,7864410}-{1,2500,3730,0,7864410}-{1,2500,3731,0,7864410}-{1,2501,3732,0,7864410}-{1,2503,3733,0,7864410}-{1,2504,3732,0,7864410}-{1,2506,3731,0,7864410}-{1,2529,3735,0,7864410}-{1,2531,3736,0,7864410}-{1,2527,3746,0,7864410}-{1,2525,3751,0,7864410}-{1,2532,3762,0,7864410}-{1,2503,3757,0,5898270}-{1,2502,3756,0,5898270}-{1,2502,3754,0,5898270}-{1,2502,3752,0,5898270}-{1,2503,3751,0,5898270}-{1,2505,3753,0,5898270}"
  },
  {
    "item_id": "239",
    "loc_data": "{1,3217,3812,0,196610}-{1,3210,3808,0,196610}"
  },
  {
    "item_id": "243",
    "loc_data": "{1,2910,9809,0,30}-{1,2908,9805,0,30}-{1,2902,9806,0,30}-{1,2906,9796,0,30}-{1,2905,9801,0,30}"
  },
  {
    "item_id": "245",
    "loc_data": "{1,2931,3515,0,4587570}"
  },
  {
    "item_id": "247",
    "loc_data": "{1,2512,3080,0,5898270}-{1,2517,3082,0,5898270}-{1,2509,3088,0,5898270}-{1,2508,3084,0,5898270}"
  },
  {
    "item_id": "272",
    "loc_data": "{1,3108,3356,1,10485900}"
  },
  {
    "item_id": "273",
    "loc_data": "{1,3097,3366,0,10485900}"
  },
  {
    "item_id": "276",
    "loc_data": "{1,3111,3367,0,4587570}"
  },
  {
    "item_id": "277",
    "loc_data": "{1,3092,9755,0,4587570}"
  },
  {
    "item_id": "278",
    "loc_data": "{1,2604,3358,0,4587570}"
  },
  {
    "item_id": "301",
    "loc_data": "{1,2608,3397,0,7209050}"
  },
  {
    "item_id": "303",
    "loc_data": "{1,3245,3155,0,10485900}-{1,3244,3159,0,10485900}-{1,3429,4784,0,75}-{1,3432,4783,0,75}-{1,3414,4768,0,75}-{1,3429,4769,0,75}-{1,3431,4772,0,75}-{1,3415,4786,0,75}-{1,3412,4784,0,75}"
  },
  {
    "item_id": "305",
    "loc_data": "{1,2605,3395,0,7209050}"
  },
  {
    "item_id": "307",
    "loc_data": "{1,2860,3335,0,13762750}"
  },
  {
    "item_id": "311",
    "loc_data": "{1,2605,3396,0,7209050}"
  },
  {
    "item_id": "347",
    "loc_data": "{1,2563,9511,0,5898270}"
  },
  {
    "item_id": "357",
    "loc_data": "{1,2820,3453,0,7209050}"
  },
  {
    "item_id": "401",
    "loc_data": "{1,2810,3387,0,11796640}-{1,2809,3388,0,11796640}-{1,2809,3385,0,11796640}-{1,2807,3386,0,11796640}-{1,2804,3385,0,11796640}-{1,2807,3384,0,11796640}-{1,2805,3384,0,11796640}-{1,2802,3382,0,11796640}-{1,2805,3381,0,11796640}-{1,2804,3380,0,11796640}-{1,3829,3053,0,11796640}-{1,3813,3066,0,11796640}-{1,3814,3064,0,11796640}-{1,3808,3060,0,11796640}-{1,2693,3727,0,11796640}-{1,2698,3729,0,11796640}-{1,2700,3731,0,11796640}-{1,2708,3728,0,11796640}-{1,2725,3731,0,11796640}-{1,2721,3730,0,11796640}-{1,2719,3733,0,11796640}-{1,2714,3733,0,11796640}-{1,2712,3732,0,11796640}-{1,2896,3119,0,11796640}-{1,2914,3111,0,11796640}-{1,2926,3110,0,11796640}-{1,2939,3102,0,11796640}-{1,2938,3073,0,11796640}-{1,2945,3068,0,11796640}-{1,2975,3013,0,11796640}-{1,2955,3010,0,11796640}-{1,2959,2959,0,11796640}-{1,2943,2950,0,11796640}-{1,2866,2976,0,11796640}-{1,2854,2977,0,11796640}-{1,2840,2974,0,11796640}-{1,2757,2947,0,11796640}-{1,2755,2952,0,11796640}-{1,2786,2960,0,11796640}-{1,2782,2987,0,11796640}-{1,2771,2995,0,11796640}-{1,2761,3000,0,11796640}-{1,2755,3008,0,11796640}-{1,2754,3017,0,11796640}-{1,2756,3060,0,11796640}-{1,2755,3070,0,11796640}-{1,2756,3074,0,11796640}-{1,2806,3128,0,11796640}-{1,2864,3195,0,11796640}-{1,2764,3131,0,11796640}-{1,2753,3125,0,11796640}-{1,2757,3109,0,11796640}"
  },
  {
    "item_id": "444",
    "loc_data": "{1,3195,9821,0,11141270}-{1,3231,3739,0,19661050}-{1,3236,3741,0,19661050}"
  },
  {
    "item_id": "480",
    "loc_data": "{1,3298,3313,0,5898270}"
  },
  {
    "item_id": "526",
    "loc_data": "{1,2917,9796,0,7864410}-{1,2914,9796,0,7864410}-{1,2910,9797,0,7864410}-{1,2908,9794,0,7864410}-{1,3103,9953,0,7864410}-{1,3104,9950,0,7864410}-{1,3110,9952,0,7864410}-{1,3111,9956,0,7864410}-{1,3110,9958,0,7864410}-{1,3111,9959,0,7864410}-{1,3116,9950,0,7864410}-{1,3127,9957,0,7864410}-{1,2926,9801,0,7864410}-{1,2924,9801,0,7864410}-{1,2924,9804,0,7864410}-{1,2927,9805,0,7864410}-{1,2929,9807,0,7864410}-{1,2938,9792,0,7864410}-{1,2938,9796,0,7864410}-{1,2935,9799,0,7864410}-{1,2930,9794,0,7864410}-{1,2932,9792,0,7864410}-{1,2966,9772,0,7864410}-{1,2968,9771,0,7864410}-{1,2903,9826,0,7864410}-{1,2906,9823,0,7864410}-{1,2906,9825,0,7864410}-{1,2907,9824,0,7864410}-{1,2910,9825,0,7864410}-{1,3101,9825,0,7864410}-{1,3107,9823,0,7864410}-{1,3109,9823,0,7864410}-{1,3110,9825,0,7864410}-{1,3138,9880,0,7864410}-{1,3141,9879,0,7864410}-{1,3142,9880,0,7864410}-{1,3143,9878,0,7864410}-{1,3097,9902,0,7864410}-{1,3094,9907,0,7864410}-{1,3093,9884,0,7864410}-{1,3098,9886,0,7864410}-{1,3093,9879,0,7864410}-{1,3122,9891,0,7864410}-{1,3116,9891,0,7864410}-{1,3119,9894,0,7864410}-{1,3120,9894,0,7864410}-{1,2831,9766,0,7864410}-{1,2829,9764,0,7864410}-{1,2510,3080,0,5898270}-{1,2516,3084,0,5898270}-{1,2509,3090,0,5898270}-{1,2512,3084,0,5898270}-{1,2510,3084,0,5898270}-{1,2505,3114,0,5898270}-{1,2507,3116,0,5898270}-{1,2503,3118,0,5898270}-{1,2510,3114,0,5898270}-{1,3238,3606,0,9830500}-{1,3236,3605,0,9830500}-{1,3238,3603,0,9830500}-{1,3240,3603,0,9830500}-{1,3242,3604,0,9830500}-{1,3244,3611,0,9830500}-{1,3247,3614,0,9830500}-{1,3238,3610,0,9830500}-{1,3238,3608,0,9830500}-{1,3232,3948,0,9830500}-{1,3237,3938,0,9830500}-{1,3250,3952,0,9830500}"
  },
  {
    "item_id": "528",
    "loc_data": "{1,3182,3848,0,6553650}-{1,3178,3851,0,6553660}-{1,3179,3853,0,6553660}-{1,3185,3857,0,6553660}-{1,3187,3853,0,6553660}-{1,3211,3822,0,6553660}-{1,3212,3819,0,6553660}-{1,3217,3816,0,6553660}-{1,3218,3813,0,6553660}"
  },
  {
    "item_id": "542",
    "loc_data": "{1,3059,3488,1,7209050}"
  },
  {
    "item_id": "544",
    "loc_data": "{1,3059,3487,1,7209050}"
  },
  {
    "item_id": "554",
    "loc_data": "{1,3303,3311,0,5898270}-{1,3026,3636,0,19661000}"
  },
  {
    "item_id": "555",
    "loc_data": "{1,3297,3316,0,5898270}-{1,3028,3636,0,19661000}-{3,2960,3899,0,19661000}"
  },
  {
    "item_id": "556",
    "loc_data": "{1,2938,3158,0,8519790}-{1,3030,3636,0,19661000}"
  },
  {
    "item_id": "557",
    "loc_data": "{1,3032,3636,0,19661000}"
  },
  {
    "item_id": "558",
    "loc_data": "{1,3206,3208,0,5898280}-{1,3023,3640,0,19661000}"
  },
  {
    "item_id": "559",
    "loc_data": "{1,3089,3866,0,5898270}-{1,3021,3637,0,19661000}-{1,3233,3573,0,19661000}-{1,3234,3578,0,19661000}-{1,3230,3582,0,19661000}"
  },
  {
    "item_id": "561",
    "loc_data": "{1,2671,3737,0,19661000}-{1,2672,3738,0,19661000}"
  },
  {
    "item_id": "562",
    "loc_data": "{1,3021,3640,0,19661000}"
  },
  {
    "item_id": "564",
    "loc_data": "{3,2947,3898,0,19661000}"
  },
  {
    "item_id": "590",
    "loc_data": "{1,2368,3135,0,10485900}-{1,2431,3072,0,10485900}-{1,3112,3369,2,10485900}-{1,3209,3734,0,13107300}"
  },
  {
    "item_id": "687",
    "loc_data": "{1,2655,3424,0,6553680}-{1,2665,3424,0,6553680}-{1,2669,3423,0,6553680}-{1,2668,3419,0,6553680}-{1,2671,3420,0,6553680}-{1,2677,3423,0,6553680}-{1,2676,3425,0,6553680}-{1,2676,3422,0,6553680}-{1,2679,3424,0,6553680}-{1,2678,3426,0,6553680}-{1,2679,3423,0,6553680}-{1,2680,3424,0,6553680}-{1,2672,3427,0,6553680}-{1,2676,3430,0,6553680}-{1,2673,3428,0,6553680}-{1,2670,3437,0,6553680}"
  },
  {
    "item_id": "712",
    "loc_data": "{1,2887,3412,0,5898270}-{1,2903,3441,0,5898270}"
  },
  {
    "item_id": "767",
    "loc_data": "{1,3245,3385,1,4587570}-{1,3243,3383,1,4587570}"
  },
  {
    "item_id": "882",
    "loc_data": "{1,3135,9916,0,10485900}-{3,3130,9903,0,10485900}-{1,3205,3227,0,10485900}-{1,2957,3205,0,5898270}-{1,2944,3332,0,5898270}-{1,3104,3599,0,13107300}-{1,3103,3596,0,13107300}-{1,3100,3593,0,13107300}-{1,3096,3595,0,13107300}-{1,3094,3598,0,13107300}-{1,3100,3609,0,13107300}-{1,3104,3610,0,13107300}-{1,3107,3611,0,13107300}-{1,3108,3603,0,13107300}"
  },
  {
    "item_id": "946",
    "loc_data": "{1,3218,9887,0,6553680}{1,2700,3407,0,6553680}-{1,3205,3212,0,6553680}-{1,3215,9625,0,6553680}-{1,3224,3202,0,6553680}-{1,2903,3148,0,6553680}-{1,2820,3450,0,7209050}-{1,3218,3416,1,7864410}-{1,3106,3956,0,5242940}-{1,2566,9526,0,5898270}"
  },
  {
    "item_id": "952",
    "loc_data": "{1,2566,3330,0,100}-{1,3120,3359,0,8519790}-{1,2981,3370,0,9830490}-{1,3572,3312,0,3276830}-{1,3571,3310,0,3276830}-{1,3218,3412,1,5898270}-{1,1951,4964,0,5898270}"
  },
  {
    "item_id": "954",
    "loc_data": "{1,2094,3152,0,11141270}"
  },
  {
    "item_id": "960",
    "loc_data": "{1,2846,3384,0,11796640}-{1,2848,3383,0,11796640}-{1,2851,3239,0,11796640}-{1,2847,3238,0,11796640}-{1,2845,3232,0,11796640}-{1,2856,3231,0,11796640}-{1,2857,3236,0,11796640}-{1,3216,3665,0,16384200}-{1,3224,3668,0,16384200}-{1,3245,3678,0,16384200}-{1,3230,3686,0,16384200}-{1,3216,3677,0,16384200}-{1,3219,3680,0,16384200}-{1,2550,3575,0,16384200}-{1,2553,3576,0,16384200}-{1,2554,3575,0,16384200}-{1,2556,3573,0,16384200}"
  },
  {
    "item_id": "966",
    "loc_data": "{1,3237,3696,0,13107350}"
  },
  {
    "item_id": "970",
    "loc_data": "{1,3290,3033,1,7864410}"
  },
  {
    "item_id": "983",
    "loc_data": "{1,3131,9862,0,7209050}"
  },
  {
    "item_id": "995",
    "loc_data": "{1,2909,9800,0,11141270}-{4,2912,9801,0,11141270}-{8,2910,9803,0,11141270}-{5,2907,9807,0,11141270}-{6,2913,9806,0,11141270}-{1,2922,9820,0,11141270}-{1,2934,9834,0,11141270}-{1,2917,9850,0,11141270}-{1,2914,9849,0,11141270}-{4,3088,9898,0,11141270}-{1,3088,9899,0,11141270}-{1,3091,9899,0,11141270}-{3,3195,9834,0,11141270}-{4,3195,9820,0,11141270}-{66,3191,9821,0,11141270}-{56,3190,9819,0,11141270}-{26,3188,9819,0,11141270}-{26,3188,9820,0,11141270}-{35,3189,9819,0,11141270}-{384,3224,3830,0,6553650}-{384,3220,3824,0,6553650}-{2,3106,3547,0,13107300}-{1,3104,3558,0,13107300}-{1,3106,3534,0,13107300}-{2,3101,3564,0,13107300}-{4,3103,3579,0,13107300}-{2,3234,3560,0,13107300}"
  },
  {
    "item_id": "1005",
    "loc_data": "{1,3014,3227,0,3276830}-{1,3009,3204,0,3276830}"
  },
  {
    "item_id": "1009",
    "loc_data": "{1,3122,9881,0,3276830}"
  },  
  {
    "item_id": "1059",
    "loc_data": "{1,3242,3385,1,7209050}-{1,3097,3486,0,7864410}-{1,3148,3177,0,5898270}"
  },
  {
    "item_id": "1061",
    "loc_data": "{1,3244,3386,1,13762750}-{1,3208,9620,0,13762750}-{1,3210,9615,0,13762750}-{1,3111,3159,0,13762750}-{1,3112,3155,0,7864420}-{1,3302,3190,0,5898270}"
  },
  {
    "item_id": "1069",
    "loc_data": "{1,3249,3740,0,7209050}"
  },  
  {
    "item_id": "1119",
    "loc_data": "{1,3084,3859,0,6553660}"
  },
  {
    "item_id": "1137",
    "loc_data": "{1,3242,3688,0,13107350}"
  },
  {
    "item_id": "1139",
    "loc_data": "{1,3122,3360,0,13762750}"
  },
  {
    "item_id": "1171",
    "loc_data": "{1,3217,3514,0,2949150}"
  },
  {
    "item_id": "1191",
    "loc_data": "{1,3250,3797,0,13107350}"
  },
  {
    "item_id": "1203",
    "loc_data": "{1,3242,3383,1,17039600}-{1,3248,3245,0,13107380}-{1,3216,3695,0,13107350}"
  },
  {
    "item_id": "1205",
    "loc_data": "{1,3213,3216,1,13762750}"
  },
  {
    "item_id": "1207",
    "loc_data": "{1,3213,3682,0,13107300}"
  },
  {
    "item_id": "1217",
    "loc_data": "{1,3180,3821,0,6553660}"
  },
  {
    "item_id": "1265",
    "loc_data": "{1,3081,3429,0,6553650}-{1,3288,9442,0,7864410}-{1,3288,9431,0,7864410}-{1,2963,3216,0,5898270}-{1,3229,3218,2,100}"
  },
  {
    "item_id": "1321",
    "loc_data": "{1,2965,3211,1,5898270}"
  },
  {
    "item_id": "1351",
    "loc_data": "{1,2795,3161,0,17039600}-{1,2970,3376,1,5898270}"
  },
  {
    "item_id": "1385",
    "loc_data": "{1,3099,3862,0,58983299}"
  },
  {
    "item_id": "1422",
    "loc_data": "{1,3320,3137,0,11141270}"
  },
  {
    "item_id": "1510",
    "loc_data": "{1,2576,3334,0,100}"
  },
  {
    "item_id": "1511",
    "loc_data": "{1,3205,3226,2,11796640}-{1,3205,3224,2,11796640}-{1,3208,3225,2,11796640}-{1,3209,3224,2,11796640}-{1,3106,3160,0,11796640}-{1,3106,3159,0,11796640}-{1,3105,3159,0,11796640}-{1,2958,3205,0,5898270}-{1,2959,3205,0,5898270}"
  },
  {
    "item_id": "1523",
    "loc_data": "{1,2614,9570,0,5898270}"
  },
  {
    "item_id": "1550",
    "loc_data": "{1,2714,3478,0,5898270}"
  },  
  {
    "item_id": "1573",
    "loc_data": "{1,2559,2975,0,327690}-{1,2560,2974,0,327690}-{1,2561,2973,0,327690}-{1,2561,2976,0,327690}-{1,2740,3637,0,5898270}-{1,2736,3638,0,5898270}-{1,2735,3636,0,5898270}-{1,2743,3636,0,5898270}-{1,2739,3634,0,5898270}-{1,2743,3640,0,5898270}-{1,2741,3639,0,5898270}-{1,2736,3641,0,5898270}-{1,2738,3641,0,5898270}-{1,2734,3640,0,5898270}-{1,2738,3636,0,5898270}"
  },
  {
    "item_id": "1590",
    "loc_data": "{1,2900,9766,0,7209050}"
  },  
  {
    "item_id": "1592",
    "loc_data": "{1,2935,3283,1,7209050}"
  },
  {
    "item_id": "1595",
    "loc_data": "{1,2928,3290,0,7209050}"
  },
  {
    "item_id": "1597",
    "loc_data": "{1,2932,3287,1,7209050}"
  },
  {
    "item_id": "1599",
    "loc_data": "{1,2931,3287,1,7209050}"
  },
  {
    "item_id": "1607",
    "loc_data": "{1,3169,3887,0,32768400}-{1,3169,3887,0,32768400}-{1,2679,3740,0,32768400}"
  },
  {
    "item_id": "1641",
    "loc_data": "{1,3196,9822,0,11141270}"
  },
  {
    "item_id": "1654",
    "loc_data": "{1,3192,9821,0,11141270}"
  },
  {
    "item_id": "1734",
    "loc_data": "{1,3286,3491,0,4587570}"
  },
  {
    "item_id": "1735",
    "loc_data": "{1,3192,3272,0,10485900}-{1,3126,3356,0,10485900}-{1,2930,3285,1,7209050}-{1,3152,3306,0,5898270}"
  },
  {
    "item_id": "1755",
    "loc_data": "{1,2935,3286,0,7209050}"
  },
  {
    "item_id": "1785",
    "loc_data": "{1,2822,3355,0,11141270}"
  },
  {
    "item_id": "1856",
    "loc_data": "{1,2638,3292,0,11141270}"
  },
  {
    "item_id": "1887",
    "loc_data": "{1,3141,3452,1,7209050}"
  },
  {
    "item_id": "1917",
    "loc_data": "{1,2799,3156,0,11141270}-{1,2796,3165,0,11141270}-{1,3080,3438,0,4587565}-{1,3286,3033,1,7864410}-{1,3077,3439,0,5898270}-{1,3077,3443,0,5898270}-{1,3049,3257,0,11141270}"
  },
  {
    "item_id": "1919",
    "loc_data": "{1,2798,3156,0,11141270}-{1,2799,3155,0,11141270}-{1,2795,3160,0,11141270}-{1,2798,3160,0,11141270}-{1,2798,3161,0,11141270}-{1,2795,3165,0,11141270}-{1,2794,3165,0,11141270}"
  },
  {
    "item_id": "1921",
    "loc_data": "{1,3291,3034,0,7209050}"
  },
  {
    "item_id": "1923",
    "loc_data": "{1,3208,3214,0,6553680}-{1,3140,3452,1,7209050}"
  },
  {
    "item_id": "1925",
    "loc_data": "{1,2564,3332,0,100}-{1,2428,3079,0,6553680}-{1,2428,3080,0,6553680}-{1,2371,3128,0,6553680}-{1,2371,3127,0,6553680}-{1,3225,3294,0,6553680}-{1,3121,3359,0,6553660}-{1,3216,9625,0,6553680}-{1,3026,3289,0,6553680}-{1,2958,3510,0,6553680}-{1,3221,3497,1,6553680}-{1,2958,3510,0,6553680}-{1,3222,3491,1,6553680}-{1,3307,3195,0,5898270}-{1,1941,4956,0,5898270}"
  },
  {
    "item_id": "1927",
    "loc_data": "{1,2685,3683,0,1966}"
  },
  {
    "item_id": "1929",
    "loc_data": "{1,2820,3452,0,7209050}-{1,2823,3449,0,7209050}"
  },
  {
    "item_id": "1931",
    "loc_data": "{1,3209,3214,0,6553680}-{1,3144,3449,2,7209050}-{1,3166,3310,0,7864410}"
  },
  {
    "item_id": "1935",
    "loc_data": "{1,3211,3212,0,6553680}-{1,3211,9625,0,6553680}-{1,2905,3146,0,6553680}-{1,2936,3292,0,7209050}-{1,3142,3447,2,7209050}"
  },
  {
    "item_id": "1939",
    "loc_data": "{1,3193,3181,0,11141270}-{1,3194,3168,0,11141270}-{1,3191,3162,0,11141270}-{1,3189,3163,0,11141270}-{1,3185,3161,0,11141270}-{1,3182,3165,0,11141270}-{1,3172,3166,0,11141270}-{1,3170,3167,0,11141270}-{1,3164,3169,0,11141270}-{1,3171,3177,0,11141270}-{1,3173,3178,0,11141270}-{1,3164,3180,0,11141270}-{1,3165,3187,0,11141270}-{1,3171,3191,0,11141270}-{1,3178,3190,0,11141270}-{1,3181,3193,0,11141270}-{1,3182,3181,0,11141270}-{1,3493,3408,0,3932190}-{1,3494,3402,0,3932190}-{1,3494,3396,0,3932190}-{1,3499,3401,0,3932190}"
  },
  {
    "item_id": "1944",
    "loc_data": "{1,3229,3299,0,3604515}-{1,3226,3301,0,3604515}-{1,3191,3276,0,3604515}-{1,2853,3370,0,3604515}-{1,2852,3369,0,3604515}-{1,2851,3372,0,3604515}-{1,3015,3295,0,5898270}-{1,3016,3295,0,5898270}"
  },
  {
    "item_id": "1955",
    "loc_data": "{1,3141,3447,1,7209050}-{1,3140,3447,1,7209050}-{1,3141,3447,2,7209050}"
  },
  {
    "item_id": "1963",
    "loc_data": "{1,2907,3146,0,11141270}-{1,3009,3207,0,11141270}"
  },
  {
    "item_id": "1965",
    "loc_data": "{1,3217,9622,0,7209050}"
  },
  {
    "item_id": "1971",
    "loc_data": "{1,2843,3369,0,11796640}"
  },
  {
    "item_id": "1973",
    "loc_data": "{1,3143,3453,0,5242920}-{1,2384,4440,0,5242920}"
  },
  {
    "item_id": "1982",
    "loc_data": "{1,3085,3261,0,11141270}-{1,3039,3706,0,1310735}-{1,2584,2966,0,327690}"
  },
  {
    "item_id": "1985",
    "loc_data": "{1,3083,3260,0,11141270}-{1,3039,3707,0,1310735}"
  },
  {
    "item_id": "1987",
    "loc_data": "{1,3237,9761,0,7209050}-{1,3144,3450,2,7209050}"
  },
  {
    "item_id": "1993",
    "loc_data": "{1,3291,3033,1,7864410}"
  },
  {
    "item_id": "2025",
    "loc_data": "{1,2449,3510,1,7864410}"
  },  
  {
    "item_id": "2026",
    "loc_data": "{1,2483,3482,1,7864410}-{1,2489,3489,1,7864410}"
  },
  {
    "item_id": "2126",
    "loc_data": "{1,2661,3478,0,100}-{1,2638,3480,0,100}-{1,2632,3492,0,100}-{1,2648,3498,0,100}-{1,2669,3497,0,100}"
  },
  {
    "item_id": "2140",
    "loc_data": "{1,2971,3382,1,5898270}"
  },
  {
    "item_id": "2142",
    "loc_data": "{1,3080,3443,0,5898270}-{1,3077,3441,0,5898270}"
  },
  {
    "item_id": "2150",
    "loc_data": "{1,2418,3511,0,3932190}-{1,2417,3512,0,3932190}-{1,2416,3512,0,5898270}-{1,2412,3511,0,5898270}-{1,2411,3519,0,5898270}-{1,2415,3518,0,5898270}-{1,2417,3516,0,5898270}-{1,2417,3515,0,5898270}-{1,2421,3519,0,5898270}-{1,2424,3517,0,5898270}-{1,2424,3514,0,5898270}-{1,2428,3510,0,5898270}-{1,2407,3516,0,5898270}-{1,2907,3393,0,5898270}-{1,2903,3400,0,5898270}-{1,2908,3410,0,5898270}"
  },
  {
    "item_id": "2162",
    "loc_data": "{1,2425,3515,0,5898270}-{1,2415,3517,0,5898270}-{1,2414,3518,0,5898270}-{1,2419,3511,0,5898270}-{1,2415,3511,0,5898270}-{1,2414,3510,0,5898270}-{1,2427,3508,0,5898270}-{1,2426,3507,0,5898270}-{1,2408,3518,0,5898270}-{1,2896,3414,0,5898270}"
  },
  {
    "item_id": "2313",
    "loc_data": "{1,3142,3447,1,7209050}-{1,2820,3455,0,7209050}-{1,3222,3494,0,7864410}"
  },
  {
    "item_id": "2347",
    "loc_data": "{1,2934,3286,0,7209050}-{1,2579,3463,0,5242920}-{1,2975,3368,1,5898270}-{1,1953,4974,0,5898270}"
  },
  {
    "item_id": "2357",
    "loc_data": "{1,3192,9822,0,11141270}"
  },
  {
    "item_id": "2398",
    "loc_data": "{1,2517,3049,0,6553650}-{1,2511,3045,0,6553650}"
  },
  {
    "item_id": "2407",
    "loc_data": "{1,2935,3460,0,5}"
  },
  {
    "item_id": "2408",
    "loc_data": "{1,2903,3471,0,5}"
  },
  {
    "item_id": "3109",
    "loc_data": "{1,2893,3565,0,1441794}"
  },
  {
    "item_id": "3110",
    "loc_data": "{1,2893,3564,0,1441794}"
  },
  {
    "item_id": "3111",
    "loc_data": "{1,2893,3561,0,1441794}"
  },
  {
    "item_id": "3112",
    "loc_data": "{1,2893,3563,0,1441794}"
  },
  {
    "item_id": "3113",
    "loc_data": "{1,2893,3562,0,1441794}"
  },
  {
    "item_id": "3138",
    "loc_data": "{1,3463,9478,2,3932205}-{1,3461,9480,2,3932205}-{1,3461,9482,2,3932205}-{1,3461,9484,2,3932205}"
  },
  {
    "item_id": "3711",
    "loc_data": "{1,2660,3676,0,196}"
  },
  {
    "item_id": "3803",
    "loc_data": "{1,2658,3676,0,1966}"
  },
  {
    "item_id": "3805",
    "loc_data": "{1,2659,3676,0,196}"
  },
  {
    "item_id": "4707",
    "loc_data": "{1,3571,3312,0,3932200}"
  },
  {
    "item_id": "5523",
    "loc_data": "{1,2935,3282,1,7209050}"
  },
  {
    "item_id": "6291",
    "loc_data": "{1,2681,3111,0,5898270}-{1,2673,3112,0,5898270}-{1,2674,3094,0,5898270}-{1,2671,3089,0,5898270}"
  },
  {
    "item_id": "6662",
    "loc_data": "{1,2984,3112,0,8519770}"
  },
  {
    "item_id": "6663",
    "loc_data": "{1,2984,3114,0,8519770}"
  },
  {
    "item_id": "11065",
    "loc_data": "{1,2928,3289,0,7209050}"
  },
  {
    "item_id": "12494",
    "loc_data": "{1,2762,2973,0,7864380}"
  },
  {
    "item_id": "5008",
    "loc_data": "{1,3230,9609,0,300}"
  },
  {
    "item_id": "7510",
    "loc_data": "{1,2867,9875,0,300}"
  },
  {
    "item_id": "1913",
    "loc_data": "{1,2863,9875,0,300}-{1,2861,9878,0,300}"
  },  
  {
    "item_id": "4619",
    "loc_data": "{1,2713,4913,0,2}"
  },
  {
    "item_id": "2964",
    "loc_data": "{1,3437,3337,0,100}"
  },
  {
    "item_id": "2957",
    "loc_data": "{1,3443,9742,0,100}-{1,3443,9742,1,100}"
  },
  {
    "item_id": "21",
    "loc_data": "{1,2613,9639,0,100}"
  },
  {
    "item_id": "23",
    "loc_data": "{1,2583,9613,0,100}"
  },
  {
    "item_id": "24",
    "loc_data": "{1,2564,9662,0,100}"
  },
  {
    "item_id": "20",
    "loc_data": "{1,2577,9655,0,100}"
  },
  {
    "item_id": "22",
    "loc_data": "{1,2574,9633,0,100}"
  },
  {
    "item_id": "2128",
    "loc_data": "{1,2648,2963,0,327690}-{1,2647,2956,0,327690}-{1,2638,2949,0,327690}"
  },
  {
    "item_id": "4615",
    "loc_data": "{1,3479,3092,0,0}"
  },
  {
    "item_id": "2333",
    "loc_data": "{1,3042,3952,0,100}"
  }
]
